Lab #2/Raw/T0009ALL.CSV

Model,DPO2024B
Firmware Version,1.56

Point Format,Y,,,
Horizontal Units,S,,,
Horizontal Scale,0.0002,,,
Sample Interval,3.84025e-07,,,
Filter Frequency,290000,,,
Record Length,5208,,,
Gating,0.0% to 100.0%,,0.0% to 100.0%,
Probe Attenuation,1,,1,
Vertical Units,V,,V,
Vertical Offset,0,,0,
Vertical Scale,0.1,,0.02,
Label,,,,
TIME,CH1,CH1 Peak Detect,CH2,CH2 Peak Detect
-2.0400e-04,-0.444,-0.448,0.0016,0.0032
-2.0362e-04,-0.444,-0.436,0.0016,-5.72205e-10
-2.0323e-04,-0.444,-0.448,0.0016,0.0032
-2.0285e-04,-0.444,-0.436,0.0016,-5.72205e-10
-2.0246e-04,-0.444,-0.448,0.0016,0.004
-2.0208e-04,-0.444,-0.44,0.0016,-5.72205e-10
-2.0170e-04,-0.444,-0.448,0.0016,0.0032
-2.0131e-04,-0.444,-0.44,0.0016,-5.72205e-10
-2.0093e-04,-0.444,-0.448,0.0016,0.0032
-2.0054e-04,-0.444,-0.44,0.0016,-5.72205e-10
-2.0016e-04,-0.444,-0.448,0.0016,0.004
-1.9978e-04,-0.444,-0.44,0.0016,-5.72205e-10
-1.9939e-04,-0.444,-0.448,0.0016,0.0032
-1.9901e-04,-0.444,-0.436,0.0016,-5.72205e-10
-1.9862e-04,-0.444,-0.448,0.0016,0.0032
-1.9824e-04,-0.444,-0.44,0.0016,-5.72205e-10
-1.9786e-04,-0.444,-0.448,0.0016,0.004
-1.9747e-04,-0.444,-0.436,0.0016,-5.72205e-10
-1.9709e-04,-0.444,-0.448,0.0016,0.0032
-1.9670e-04,-0.444,-0.436,0.0016,-5.72205e-10
-1.9632e-04,-0.444,-0.448,0.0016,0.004
-1.9594e-04,-0.444,-0.436,0.0016,-5.72205e-10
-1.9555e-04,-0.444,-0.448,0.0016,0.004
-1.9517e-04,-0.444,-0.436,0.0016,-5.72205e-10
-1.9478e-04,-0.444,-0.448,0.0016,0.0032
-1.9440e-04,-0.444,-0.436,0.0016,-5.72205e-10
-1.9402e-04,-0.444,-0.448,0.0016,0.0032
-1.9363e-04,-0.444,-0.436,0.0016,0.000799999
-1.9325e-04,-0.444,-0.448,0.0016,0.004
-1.9286e-04,-0.444,-0.436,0.0016,-5.72205e-10
-1.9248e-04,-0.444,-0.448,0.0016,0.0032
-1.9210e-04,-0.444,-0.436,0.0016,-0.000800001
-1.9171e-04,-0.444,-0.448,0.0024,0.0032
-1.9133e-04,-0.444,-0.44,0.0024,0.000799999
-1.9094e-04,-0.444,-0.448,0.0024,0.004
-1.9056e-04,-0.444,-0.44,0.0024,0.000799999
-1.9018e-04,-0.444,-0.448,0.0016,0.004
-1.8979e-04,-0.444,-0.44,0.0016,-5.72205e-10
-1.8941e-04,-0.444,-0.448,0.0024,0.004
-1.8902e-04,-0.444,-0.436,0.0024,-5.72205e-10
-1.8864e-04,-0.444,-0.448,0.0016,0.004
-1.8825e-04,-0.444,-0.44,0.0016,-5.72205e-10
-1.8787e-04,-0.444,-0.448,0.0016,0.0032
-1.8749e-04,-0.444,-0.44,0.0016,-0.000800001
-1.8710e-04,-0.444,-0.448,0.0016,0.004
-1.8672e-04,-0.444,-0.436,0.0016,-5.72205e-10
-1.8633e-04,-0.444,-0.448,0.0016,0.0032
-1.8595e-04,-0.444,-0.436,0.0016,-5.72205e-10
-1.8557e-04,-0.444,-0.448,0.0016,0.004
-1.8518e-04,-0.444,-0.436,0.0016,-5.72205e-10
-1.8480e-04,-0.444,-0.448,0.0016,0.0032
-1.8441e-04,-0.444,-0.44,0.0016,-0.000800001
-1.8403e-04,-0.444,-0.448,0.0016,0.0032
-1.8365e-04,-0.444,-0.44,0.0016,-5.72205e-10
-1.8326e-04,-0.444,-0.448,0.0016,0.0048
-1.8288e-04,-0.444,-0.44,0.0016,-0.000800001
-1.8249e-04,-0.444,-0.448,0.0016,0.004
-1.8211e-04,-0.444,-0.44,0.0016,-5.72205e-10
-1.8173e-04,-0.444,-0.448,0.0016,0.0032
-1.8134e-04,-0.444,-0.436,0.0016,-5.72205e-10
-1.8096e-04,-0.444,-0.448,0.0016,0.0032
-1.8057e-04,-0.444,-0.44,0.0016,-0.000800001
-1.8019e-04,-0.444,-0.448,0.0016,0.0032
-1.7981e-04,-0.444,-0.44,0.0016,-5.72205e-10
-1.7942e-04,-0.444,-0.448,0.0016,0.0032
-1.7904e-04,-0.444,-0.44,0.0016,-5.72205e-10
-1.7865e-04,-0.444,-0.448,0.0016,0.0032
-1.7827e-04,-0.444,-0.44,0.0016,-5.72205e-10
-1.7789e-04,-0.444,-0.448,0.0016,0.004
-1.7750e-04,-0.444,-0.44,0.0016,-5.72205e-10
-1.7712e-04,-0.444,-0.448,0.0016,0.004
-1.7673e-04,-0.444,-0.436,0.0016,-5.72205e-10
-1.7635e-04,-0.444,-0.448,0.0016,0.0032
-1.7597e-04,-0.444,-0.436,0.0016,-5.72205e-10
-1.7558e-04,-0.444,-0.448,0.0016,0.004
-1.7520e-04,-0.444,-0.44,0.0016,-0.000800001
-1.7481e-04,-0.444,-0.448,0.0016,0.0032
-1.7443e-04,-0.444,-0.436,0.0016,-0.000800001
-1.7405e-04,-0.444,-0.448,0.0016,0.0032
-1.7366e-04,-0.444,-0.44,0.000799999,-0.000800001
-1.7328e-04,-0.444,-0.448,0.000799999,0.0024
-1.7289e-04,-0.444,-0.436,0.000799999,-0.0016
-1.7251e-04,-0.444,-0.448,0.0016,0.0032
-1.7213e-04,-0.444,-0.44,0.0016,-5.72205e-10
-1.7174e-04,-0.444,-0.448,0.0016,0.0032
-1.7136e-04,-0.444,-0.436,0.0016,-0.000800001
-1.7097e-04,-0.444,-0.448,0.0016,0.0032
-1.7059e-04,-0.444,-0.436,0.0016,-0.000800001
-1.7021e-04,-0.444,-0.448,0.0016,0.0032
-1.6982e-04,-0.444,-0.436,0.0016,-0.000800001
-1.6944e-04,-0.444,-0.448,0.0016,0.004
-1.6905e-04,-0.444,-0.44,0.0016,-0.000800001
-1.6867e-04,-0.444,-0.448,0.0016,0.0032
-1.6829e-04,-0.444,-0.44,0.0016,-0.000800001
-1.6790e-04,-0.444,-0.448,0.0016,0.004
-1.6752e-04,-0.444,-0.436,0.0016,-0.0024
-1.6713e-04,-0.444,-0.448,0.0016,0.0056
-1.6675e-04,-0.444,-0.436,0.0016,-0.000800001
-1.6637e-04,-0.444,-0.448,0.0016,0.004
-1.6598e-04,-0.444,-0.44,0.0016,-5.72205e-10
-1.6560e-04,-0.444,-0.448,0.0016,0.004
-1.6521e-04,-0.444,-0.44,0.0024,-5.72205e-10
-1.6483e-04,-0.444,-0.448,0.0016,0.004
-1.6445e-04,-0.444,-0.44,0.0016,-0.000800001
-1.6406e-04,-0.444,-0.448,0.0016,0.0032
-1.6368e-04,-0.444,-0.44,0.0016,-5.72205e-10
-1.6329e-04,-0.444,-0.448,0.0016,0.004
-1.6291e-04,-0.444,-0.44,0.0016,-0.000800001
-1.6253e-04,-0.444,-0.448,0.0016,0.0032
-1.6214e-04,-0.444,-0.436,0.0016,-0.000800001
-1.6176e-04,-0.444,-0.448,0.0016,0.0032
-1.6137e-04,-0.444,-0.436,0.0016,-0.0016
-1.6099e-04,-0.444,-0.448,0.0016,0.0056
-1.6061e-04,-0.444,-0.436,0.0016,-0.000800001
-1.6022e-04,-0.444,-0.448,0.0016,0.004
-1.5984e-04,-0.444,-0.436,0.0016,-0.000800001
-1.5945e-04,-0.444,-0.448,0.0016,0.0032
-1.5907e-04,-0.444,-0.436,0.0016,-0.000800001
-1.5869e-04,-0.444,-0.448,0.0016,0.0032
-1.5830e-04,-0.444,-0.44,0.0016,-0.0016
-1.5792e-04,-0.444,-0.448,0.0016,0.0048
-1.5753e-04,-0.444,-0.44,0.0016,-0.000800001
-1.5715e-04,-0.444,-0.448,0.0016,0.004
-1.5676e-04,-0.444,-0.436,0.0016,-0.000800001
-1.5638e-04,-0.444,-0.448,0.0016,0.0032
-1.5600e-04,-0.444,-0.436,0.000799999,-0.000800001
-1.5561e-04,-0.444,-0.448,0.000799999,0.0048
-1.5523e-04,-0.444,-0.44,0.000799999,-0.0016
-1.5484e-04,-0.444,-0.448,0.000799999,0.0032
-1.5446e-04,-0.444,-0.436,0.000799999,-0.0016
-1.5408e-04,-0.444,-0.448,0.0016,0.004
-1.5369e-04,-0.444,-0.44,0.0016,-0.000800001
-1.5331e-04,-0.444,-0.448,0.0016,0.004
-1.5292e-04,-0.444,-0.44,0.0016,-0.000800001
-1.5254e-04,-0.444,-0.448,0.0016,0.0048
-1.5216e-04,-0.444,-0.436,0.0016,-0.0024
-1.5177e-04,-0.444,-0.448,0.0016,0.0048
-1.5139e-04,-0.444,-0.436,0.0016,-0.000800001
-1.5100e-04,-0.444,-0.448,0.0016,0.0048
-1.5062e-04,-0.444,-0.436,0.0016,-0.000800001
-1.5024e-04,-0.444,-0.448,0.000799999,0.0048
-1.4985e-04,-0.444,-0.436,-5.72205e-10,-0.0048
-1.4947e-04,-0.444,-0.448,-0.000800001,0.0072
-1.4908e-04,-0.444,-0.436,-0.000800001,-0.0056
-1.4870e-04,-0.444,-0.448,-0.0016,0.004
-1.4832e-04,-0.444,-0.44,-0.0016,-0.0072
-1.4793e-04,-0.444,-0.448,-0.0016,0.0096
-1.4755e-04,-0.444,-0.436,-0.0016,-0.0072
-1.4716e-04,-0.444,-0.448,-0.0024,0.004
-1.4678e-04,-0.444,-0.436,-0.0032,-0.0232
-1.4640e-04,-0.444,-0.448,-0.004,0.016
-1.4601e-04,-0.444,-0.44,-0.004,-0.016
-1.4563e-04,-0.444,-0.448,-0.004,0.0048
-1.4524e-04,-0.444,-0.436,-0.004,-0.0088
-1.4486e-04,-0.444,-0.448,-0.004,-5.72205e-10
-1.4448e-04,-0.444,-0.436,-0.0032,-0.0096
-1.4409e-04,-0.444,-0.448,-0.0024,0.004
-1.4371e-04,-0.444,-0.436,-0.0024,-0.0064
-1.4332e-04,-0.444,-0.448,-0.0016,0.0024
-1.4294e-04,-0.444,-0.44,-0.0016,-0.0064
-1.4256e-04,-0.444,-0.448,-0.0016,0.0016
-1.4217e-04,-0.444,-0.436,-0.000800001,-0.004
-1.4179e-04,-0.444,-0.448,-5.72205e-10,0.0024
-1.4140e-04,-0.444,-0.436,0.000799999,-0.0072
-1.4102e-04,-0.444,-0.448,0.0016,0.012
-1.4064e-04,-0.444,-0.44,0.0016,-0.0056
-1.4025e-04,-0.444,-0.448,0.000799999,0.0096
-1.3987e-04,-0.444,-0.436,0.0016,-0.0096
-1.3948e-04,-0.444,-0.448,0.0032,0.0072
-1.3910e-04,-0.444,-0.44,0.0048,0.0024
-1.3872e-04,-0.444,-0.448,0.0056,0.0096
-1.3833e-04,-0.444,-0.436,0.0056,-0.0032
-1.3795e-04,-0.444,-0.448,0.0056,0.0176
-1.3756e-04,-0.444,-0.44,0.0048,0.000799999
-1.3718e-04,-0.444,-0.448,0.004,0.0104
-1.3680e-04,-0.444,-0.44,0.0032,0.000799999
-1.3641e-04,-0.444,-0.448,0.0024,0.0072
-1.3603e-04,-0.444,-0.44,0.0016,-0.0048
-1.3564e-04,-0.444,-0.448,-0.000800001,0.0064
-1.3526e-04,-0.444,-0.44,-0.0016,-0.0072
-1.3488e-04,-0.444,-0.448,-0.0024,0.0016
-1.3449e-04,-0.444,-0.436,-0.0024,-0.0064
-1.3411e-04,-0.444,-0.448,-0.0016,0.0024
-1.3372e-04,-0.444,-0.436,-0.0016,-0.0064
-1.3334e-04,-0.444,-0.448,-0.0016,0.0024
-1.3296e-04,-0.444,-0.436,-0.0024,-0.0072
-1.3257e-04,-0.444,-0.448,-0.004,0.0032
-1.3219e-04,-0.444,-0.44,-0.004,-0.0096
-1.3180e-04,-0.444,-0.448,-0.004,0.0016
-1.3142e-04,-0.444,-0.436,-0.004,-0.0096
-1.3104e-04,-0.444,-0.448,-0.0048,-0.000800001
-1.3065e-04,-0.444,-0.44,-0.004,-0.008
-1.3027e-04,-0.444,-0.448,-0.004,-5.72205e-10
-1.2988e-04,-0.444,-0.436,-0.0048,-0.0096
-1.2950e-04,-0.444,-0.448,-0.0048,0.0048
-1.2912e-04,-0.444,-0.436,-0.004,-0.0104
-1.2873e-04,-0.444,-0.448,-0.0016,0.000799999
-1.2835e-04,-0.444,-0.436,0.000799999,-0.004
-1.2796e-04,-0.444,-0.448,0.0016,0.0128
-1.2758e-04,-0.444,-0.436,0.0016,-0.0016
-1.2720e-04,-0.444,-0.448,0.0024,0.0064
-1.2681e-04,-0.444,-0.436,0.0032,-0.0048
-1.2643e-04,-0.444,-0.448,0.0032,0.0096
-1.2604e-04,-0.444,-0.436,0.0032,-0.0024
-1.2566e-04,-0.444,-0.448,0.004,0.008
-1.2527e-04,-0.444,-0.436,0.004,0.0016
-1.2489e-04,-0.444,-0.448,0.004,0.0072
-1.2451e-04,-0.444,-0.436,0.004,-0.0016
-1.2412e-04,-0.444,-0.448,0.004,0.0112
-1.2374e-04,-0.444,-0.44,0.0032,-0.000800001
-1.2335e-04,-0.444,-0.448,0.0024,0.0072
-1.2297e-04,-0.444,-0.44,0.0024,-0.0016
-1.2259e-04,-0.444,-0.448,0.0016,0.008
-1.2220e-04,-0.444,-0.44,0.000799999,-0.0024
-1.2182e-04,-0.444,-0.448,-5.72205e-10,0.0056
-1.2143e-04,-0.444,-0.436,-0.000800001,-0.012
-1.2105e-04,-0.444,-0.448,-0.0016,0.0152
-1.2067e-04,-0.444,-0.436,-0.0024,-0.0136
-1.2028e-04,-0.444,-0.448,-0.0032,0.0168
-1.1990e-04,-0.444,-0.436,-0.0048,-0.0096
-1.1951e-04,-0.444,-0.448,-0.0056,0.000799999
-1.1913e-04,-0.444,-0.436,-0.0056,-0.0112
-1.1875e-04,-0.444,-0.448,-0.0056,-0.000800001
-1.1836e-04,-0.444,-0.436,-0.0056,-0.0136
-1.1798e-04,-0.444,-0.448,-0.0048,0.0056
-1.1759e-04,-0.444,-0.44,-0.004,-0.0104
-1.1721e-04,-0.444,-0.448,-0.0032,0.0024
-1.1683e-04,-0.444,-0.436,-0.0032,-0.0072
-1.1644e-04,-0.444,-0.448,-0.0024,0.000799999
-1.1606e-04,-0.444,-0.44,-0.0024,-0.0048
-1.1567e-04,-0.444,-0.448,-0.0016,-5.72205e-10
-1.1529e-04,-0.444,-0.436,-0.000800001,-0.0064
-1.1491e-04,-0.444,-0.448,-5.72205e-10,0.0032
-1.1452e-04,-0.444,-0.436,0.000799999,-0.004
-1.1414e-04,-0.444,-0.448,0.000799999,0.0048
-1.1375e-04,-0.444,-0.44,0.0016,-0.0016
-1.1337e-04,-0.444,-0.448,0.0016,0.004
-1.1299e-04,-0.444,-0.44,0.0024,-0.0024
-1.1260e-04,-0.444,-0.448,0.0024,0.0096
-1.1222e-04,-0.444,-0.44,0.0032,-5.72205e-10
-1.1183e-04,-0.444,-0.448,0.004,0.0064
-1.1145e-04,-0.444,-0.436,0.004,-0.0032
-1.1107e-04,-0.444,-0.448,0.0048,0.0104
-1.1068e-04,-0.444,-0.436,0.004,-5.72205e-10
-1.1030e-04,-0.444,-0.448,0.0032,0.0072
-1.0991e-04,-0.444,-0.436,0.0024,-0.0032
-1.0953e-04,-0.444,-0.448,0.0016,0.0088
-1.0915e-04,-0.444,-0.44,0.0016,-0.004
-1.0876e-04,-0.444,-0.448,0.0016,0.0064
-1.0838e-04,-0.444,-0.436,0.0016,-0.004
-1.0799e-04,-0.444,-0.448,0.000799999,0.012
-1.0761e-04,-0.444,-0.436,-5.72205e-10,-0.004
-1.0723e-04,-0.444,-0.448,-0.000800001,0.0032
-1.0684e-04,-0.444,-0.436,-0.0016,-0.008
-1.0646e-04,-0.444,-0.448,-0.0024,0.004
-1.0607e-04,-0.444,-0.44,-0.0032,-0.0104
-1.0569e-04,-0.444,-0.448,-0.004,0.0024
-1.0531e-04,-0.444,-0.44,-0.004,-0.0064
-1.0492e-04,-0.444,-0.448,-0.004,-0.000800001
-1.0454e-04,-0.444,-0.436,-0.0048,-0.008
-1.0415e-04,-0.444,-0.448,-0.0048,-0.0024
-1.0377e-04,-0.444,-0.44,-0.004,-0.0088
-1.0339e-04,-0.444,-0.448,-0.004,0.0016
-1.0300e-04,-0.444,-0.44,-0.004,-0.0088
-1.0262e-04,-0.444,-0.448,-0.004,0.0016
-1.0223e-04,-0.444,-0.44,-0.004,-0.0064
-1.0185e-04,-0.444,-0.448,-0.0032,-0.0016
-1.0147e-04,-0.444,-0.436,-0.0024,-0.0072
-1.0108e-04,-0.444,-0.448,-0.0016,0.004
-1.0070e-04,-0.444,-0.436,-5.72205e-10,-0.004
-1.0031e-04,-0.444,-0.448,-5.72205e-10,0.0024
-9.9929e-05,-0.444,-0.436,-5.72205e-10,-0.0064
-9.9545e-05,-0.444,-0.448,-5.72205e-10,0.0064
-9.9161e-05,-0.444,-0.436,0.000799999,-0.0048
-9.8777e-05,-0.444,-0.448,0.0024,0.0048
-9.8393e-05,-0.444,-0.436,0.004,-0.0024
-9.8009e-05,-0.444,-0.448,0.0048,0.0152
-9.7625e-05,-0.444,-0.436,0.0056,0.0024
-9.7241e-05,-0.444,-0.448,0.0064,0.0112
-9.6857e-05,-0.444,-0.436,0.0056,0.000799999
-9.6473e-05,-0.444,-0.448,0.004,0.0112
-9.6089e-05,-0.444,-0.44,0.0032,-5.72205e-10
-9.5705e-05,-0.444,-0.448,0.0032,0.0064
-9.5321e-05,-0.444,-0.436,0.0024,-0.000800001
-9.4937e-05,-0.444,-0.448,0.0016,0.008
-9.4553e-05,-0.444,-0.436,0.0016,-0.004
-9.4169e-05,-0.444,-0.448,0.000799999,0.0056
-9.3785e-05,-0.444,-0.436,-5.72205e-10,-0.0032
-9.3401e-05,-0.444,-0.448,-0.0016,0.0032
-9.3017e-05,-0.444,-0.436,-0.0032,-0.0056
-9.2633e-05,-0.444,-0.448,-0.004,-0.000800001
-9.2249e-05,-0.444,-0.44,-0.004,-0.0104
-9.1865e-05,-0.444,-0.448,-0.0048,0.0016
-9.1481e-05,-0.444,-0.436,-0.0056,-0.0104
-9.1097e-05,-0.444,-0.448,-0.0064,-0.000800001
-9.0713e-05,-0.444,-0.44,-0.0064,-0.0112
-9.0329e-05,-0.444,-0.448,-0.0072,-0.0032
-8.9945e-05,-0.444,-0.44,-0.0072,-0.0144
-8.9561e-05,-0.444,-0.448,-0.0072,-0.0024
-8.9177e-05,-0.444,-0.436,-0.0072,-0.012
-8.8793e-05,-0.444,-0.448,-0.0056,-0.004
-8.8409e-05,-0.444,-0.44,-0.0032,-0.0112
-8.8025e-05,-0.444,-0.448,-0.0016,0.0056
-8.7641e-05,-0.444,-0.44,-0.000800001,-0.004
-8.7257e-05,-0.444,-0.448,-0.000800001,0.0016
-8.6873e-05,-0.444,-0.436,-5.72205e-10,-0.004
-8.6488e-05,-0.444,-0.448,0.000799999,0.0064
-8.6104e-05,-0.444,-0.44,0.0016,-0.0016
-8.5720e-05,-0.444,-0.448,0.0024,0.008
-8.5336e-05,-0.444,-0.436,0.0032,-0.0032
-8.4952e-05,-0.444,-0.448,0.0032,0.0096
-8.4568e-05,-0.444,-0.436,0.0032,-0.0136
-8.4184e-05,-0.444,-0.448,0.004,0.024
-8.3800e-05,-0.444,-0.436,0.0048,-0.0264
-8.3416e-05,-0.444,-0.448,0.004,0.0256
-8.3032e-05,-0.444,-0.436,0.004,-0.0104
-8.2648e-05,-0.444,-0.448,0.0032,0.0208
-8.2264e-05,-0.444,-0.44,0.0024,-0.008
-8.1880e-05,-0.444,-0.448,0.0024,0.0136
-8.1496e-05,-0.444,-0.436,0.0016,-0.0056
-8.1112e-05,-0.444,-0.448,0.0016,0.0088
-8.0728e-05,-0.444,-0.436,0.000799999,-0.0152
-8.0344e-05,-0.444,-0.448,0.000799999,0.0168
-7.9960e-05,-0.444,-0.436,-5.72205e-10,-0.0072
-7.9576e-05,-0.44,-0.444,-0.000800001,0.0072
-7.9192e-05,-0.44,-0.436,-0.0024,-0.0088
-7.8808e-05,-0.444,-0.448,-0.0024,0.0032
-7.8424e-05,-0.444,-0.436,-0.0024,-0.0112
-7.8040e-05,-0.444,-0.448,-0.0032,0.008
-7.7656e-05,-0.444,-0.436,-0.0048,-0.0104
-7.7272e-05,-0.444,-0.448,-0.0064,0.0056
-7.6888e-05,-0.444,-0.436,-0.0072,-0.0128
-7.6504e-05,-0.444,-0.448,-0.0072,-0.0032
-7.6120e-05,-0.444,-0.44,-0.0072,-0.012
-7.5736e-05,-0.444,-0.448,-0.0072,-0.0032
-7.5352e-05,-0.444,-0.436,-0.0072,-0.0112
-7.4968e-05,-0.444,-0.448,-0.0064,-0.000800001
-7.4584e-05,-0.444,-0.436,-0.0048,-0.0088
-7.4200e-05,-0.44,-0.448,-0.0032,0.000799999
-7.3816e-05,-0.444,-0.436,-0.000800001,-0.0072
-7.3432e-05,-0.444,-0.448,0.000799999,0.004
-7.3048e-05,-0.444,-0.436,0.0016,-0.000800001
-7.2664e-05,-0.444,-0.448,0.0016,0.004
-7.2280e-05,-0.444,-0.44,0.0016,-0.0032
-7.1896e-05,-0.444,-0.448,0.0024,0.0088
-7.1512e-05,-0.444,-0.436,0.0024,-0.0024
-7.1127e-05,-0.444,-0.448,0.0032,0.008
-7.0743e-05,-0.444,-0.436,0.0032,-0.000800001
-7.0359e-05,-0.444,-0.448,0.0032,0.008
-6.9975e-05,-0.444,-0.436,0.0032,-0.0024
-6.9591e-05,-0.444,-0.448,0.0024,0.0064
-6.9207e-05,-0.444,-0.436,0.0016,-0.0032
-6.8823e-05,-0.444,-0.448,0.0016,0.0072
-6.8439e-05,-0.444,-0.44,0.0024,-0.0072
-6.8055e-05,-0.444,-0.448,0.0032,0.0152
-6.7671e-05,-0.444,-0.436,0.004,-5.72205e-10
-6.7287e-05,-0.444,-0.448,0.004,0.008
-6.6903e-05,-0.444,-0.436,0.0032,-5.72205e-10
-6.6519e-05,-0.444,-0.448,0.0024,0.0064
-6.6135e-05,-0.444,-0.436,0.000799999,-0.0024
-6.5751e-05,-0.444,-0.448,-0.000800001,0.0064
-6.5367e-05,-0.444,-0.436,-0.0016,-0.008
-6.4983e-05,-0.444,-0.448,-0.0016,0.004
-6.4599e-05,-0.444,-0.436,-0.0024,-0.0064
-6.4215e-05,-0.444,-0.448,-0.0024,0.0032
-6.3831e-05,-0.444,-0.436,-0.0032,-0.0104
-6.3447e-05,-0.444,-0.448,-0.004,-5.72205e-10
-6.3063e-05,-0.444,-0.436,-0.004,-0.008
-6.2679e-05,-0.444,-0.448,-0.004,-0.000800001
-6.2295e-05,-0.444,-0.436,-0.004,-0.0088
-6.1911e-05,-0.444,-0.448,-0.004,-0.000800001
-6.1527e-05,-0.444,-0.44,-0.0032,-0.0064
-6.1143e-05,-0.444,-0.448,-0.0032,-5.72205e-10
-6.0759e-05,-0.444,-0.436,-0.0024,-0.0072
-6.0375e-05,-0.444,-0.448,-0.0032,0.0056
-5.9991e-05,-0.444,-0.436,-0.0032,-0.0096
-5.9607e-05,-0.444,-0.448,-0.0024,0.0024
-5.9223e-05,-0.444,-0.436,-0.000800001,-0.0056
-5.8839e-05,-0.444,-0.448,-5.72205e-10,0.0024
-5.8455e-05,-0.444,-0.436,0.0016,-0.004
-5.8071e-05,-0.444,-0.448,0.0032,0.0144
-5.7687e-05,-0.444,-0.436,0.004,-0.004
-5.7303e-05,-0.444,-0.448,0.0048,0.0104
-5.6919e-05,-0.444,-0.44,0.0048,-0.0016
-5.6535e-05,-0.444,-0.448,0.004,0.0096
-5.6151e-05,-0.444,-0.44,0.0032,-0.000800001
-5.5767e-05,-0.444,-0.448,0.0024,0.0072
-5.5382e-05,-0.444,-0.436,0.0016,-0.000800001
-5.4998e-05,-0.444,-0.448,0.000799999,0.0064
-5.4614e-05,-0.444,-0.436,0.000799999,-0.0048
-5.4230e-05,-0.444,-0.448,0.000799999,0.0072
-5.3846e-05,-0.444,-0.436,0.000799999,-0.004
-5.3462e-05,-0.444,-0.448,0.0016,0.0056
-5.3078e-05,-0.444,-0.436,0.0016,-0.000800001
-5.2694e-05,-0.444,-0.448,-5.72205e-10,0.004
-5.2310e-05,-0.444,-0.436,-0.000800001,-0.0064
-5.1926e-05,-0.444,-0.448,-0.000800001,0.0048
-5.1542e-05,-0.444,-0.436,-0.000800001,-0.0056
-5.1158e-05,-0.444,-0.448,-0.0016,0.0016
-5.0774e-05,-0.444,-0.436,-0.0016,-0.0088
-5.0390e-05,-0.444,-0.448,-0.0032,0.0048
-5.0006e-05,-0.444,-0.436,-0.0048,-0.0128
-4.9622e-05,-0.444,-0.448,-0.0072,-0.000800001
-4.9238e-05,-0.444,-0.44,-0.0088,-0.016
-4.8854e-05,-0.444,-0.448,-0.0088,-0.004
-4.8470e-05,-0.444,-0.44,-0.0072,-0.0128
-4.8086e-05,-0.444,-0.448,-0.0056,0.0056
-4.7702e-05,-0.444,-0.44,-0.0048,-0.0088
-4.7318e-05,-0.444,-0.448,-0.0048,-0.000800001
-4.6934e-05,-0.444,-0.436,-0.004,-0.0064
-4.6550e-05,-0.444,-0.448,-0.0032,-0.000800001
-4.6166e-05,-0.444,-0.436,-0.0024,-0.008
-4.5782e-05,-0.444,-0.448,-0.000800001,0.0024
-4.5398e-05,-0.444,-0.436,0.000799999,-0.0032
-4.5014e-05,-0.444,-0.448,0.0024,0.0056
-4.4630e-05,-0.444,-0.436,0.0024,-0.000800001
-4.4246e-05,-0.444,-0.448,0.0024,0.0072
-4.3862e-05,-0.444,-0.436,0.0024,-0.0016
-4.3478e-05,-0.444,-0.448,0.0016,0.0072
-4.3094e-05,-0.444,-0.436,0.0024,-0.004
-4.2710e-05,-0.444,-0.448,0.0024,0.008
-4.2326e-05,-0.444,-0.436,0.0024,-0.0016
-4.1942e-05,-0.444,-0.448,0.0024,0.0064
-4.1558e-05,-0.444,-0.436,0.0024,-5.72205e-10
-4.1174e-05,-0.444,-0.448,0.0024,0.0056
-4.0790e-05,-0.444,-0.436,0.0024,-0.0112
-4.0406e-05,-0.444,-0.448,0.0016,0.0136
-4.0022e-05,-0.444,-0.436,0.000799999,-0.0112
-3.9637e-05,-0.444,-0.448,-5.72205e-10,0.02
-3.9253e-05,-0.444,-0.436,-0.000800001,-0.0072
-3.8869e-05,-0.444,-0.448,-0.000800001,0.0056
-3.8485e-05,-0.444,-0.436,-0.000800001,-0.0056
-3.8101e-05,-0.444,-0.448,-0.000800001,0.0112
-3.7717e-05,-0.444,-0.436,-0.0016,-0.0072
-3.7333e-05,-0.444,-0.448,-0.0032,0.004
-3.6949e-05,-0.444,-0.436,-0.004,-0.0088
-3.6565e-05,-0.444,-0.448,-0.004,0.0024
-3.6181e-05,-0.444,-0.436,-0.0048,-0.0088
-3.5797e-05,-0.444,-0.448,-0.0048,-0.000800001
-3.5413e-05,-0.444,-0.436,-0.0048,-0.008
-3.5029e-05,-0.444,-0.448,-0.0056,-0.0024
-3.4645e-05,-0.444,-0.436,-0.0048,-0.0104
-3.4261e-05,-0.444,-0.448,-0.0048,0.000799999
-3.3877e-05,-0.444,-0.436,-0.0048,-0.0096
-3.3493e-05,-0.444,-0.448,-0.004,0.000799999
-3.3109e-05,-0.444,-0.436,-0.004,-0.0064
-3.2725e-05,-0.444,-0.448,-0.004,-0.0016
-3.2341e-05,-0.444,-0.436,-0.0032,-0.0056
-3.1957e-05,-0.444,-0.448,-0.0024,-5.72205e-10
-3.1573e-05,-0.444,-0.436,-0.000800001,-0.0064
-3.1189e-05,-0.444,-0.448,0.000799999,0.004
-3.0805e-05,-0.444,-0.436,0.0016,-0.0016
-3.0421e-05,-0.444,-0.448,0.0016,0.0064
-3.0037e-05,-0.444,-0.44,0.000799999,-0.0048
-2.9653e-05,-0.444,-0.448,0.000799999,0.0064
-2.9269e-05,-0.444,-0.44,0.000799999,-0.0048
-2.8885e-05,-0.444,-0.448,0.0016,0.0064
-2.8501e-05,-0.444,-0.436,0.0032,-0.0024
-2.8117e-05,-0.444,-0.448,0.0048,0.0144
-2.7733e-05,-0.444,-0.436,0.0048,0.000799999
-2.7349e-05,-0.444,-0.448,0.004,0.0128
-2.6965e-05,-0.444,-0.436,0.0032,-0.0016
-2.6581e-05,-0.444,-0.448,0.0024,0.0072
